cpu/regfile/tri_state.vcd
$date
	Tue Feb  7 18:30:58 2023
$end
$version
	Icarus Verilog
$end
$timescale
	100ps
$end
$scope module tri_state_buffer_tb $end
$var wire 32 ! in [31:0] $end
$var wire 32 " out [31:0] $end
$var reg 1 # enable $end
$var integer 32 $ i [31:0] $end
$scope module buffer $end
$var wire 1 # enable $end
$var wire 32 % in [31:0] $end
$var wire 32 & out [31:0] $end
$upscope $end
$upscope $end
$enddefinitions $end
#0
$dumpvars
bz &
b0 %
b0 $
0#
bz "
b0 !
$end
#300
b1 "
b1 &
b1 !
b1 $
b1 %
1#
#600
bz "
bz &
b10 !
b10 $
b10 %
0#
#900
b11 "
b11 &
b11 !
b11 $
b11 %
1#
#1200
bz "
bz &
b100 !
b100 $
b100 %
0#
#1500
b101 "
b101 &
b101 !
b101 $
b101 %
1#
#1800
bz "
bz &
b110 !
b110 $
b110 %
0#
#2100
b111 "
b111 &
b111 !
b111 $
b111 %
1#
#2400
bz "
bz &
b1000 !
b1000 $
b1000 %
0#
#2700
b1001 "
b1001 &
b1001 !
b1001 $
b1001 %
1#
#3000
bz "
bz &
b1010 !
b1010 $
b1010 %
0#
#3300
b1011 "
b1011 &
b1011 !
b1011 $
b1011 %
1#
#3600
bz "
bz &
b1100 !
b1100 $
b1100 %
0#
#3900
b1101 "
b1101 &
b1101 !
b1101 $
b1101 %
1#
#4200
bz "
bz &
b1110 !
b1110 $
b1110 %
0#
#4500
b1111 "
b1111 &
b1111 !
b1111 $
b1111 %
1#
#4800
bz "
bz &
b10000 !
b10000 $
b10000 %
0#
#5100
b10001 "
b10001 &
b10001 !
b10001 $
b10001 %
1#
#5400
bz "
bz &
b10010 !
b10010 $
b10010 %
0#
#5700
b10011 "
b10011 &
b10011 !
b10011 $
b10011 %
1#
#6000
bz "
bz &
b10100 !
b10100 $
b10100 %
0#
#6300
b10101 "
b10101 &
b10101 !
b10101 $
b10101 %
1#
#6600
bz "
bz &
b10110 !
b10110 $
b10110 %
0#
#6900
b10111 "
b10111 &
b10111 !
b10111 $
b10111 %
1#
#7200
bz "
bz &
b11000 !
b11000 $
b11000 %
0#
#7500
b11001 "
b11001 &
b11001 !
b11001 $
b11001 %
1#
#7800
bz "
bz &
b11010 !
b11010 $
b11010 %
0#
#8100
b11011 "
b11011 &
b11011 !
b11011 $
b11011 %
1#
#8400
bz "
bz &
b11100 !
b11100 $
b11100 %
0#
#8700
b11101 "
b11101 &
b11101 !
b11101 $
b11101 %
1#
#9000
bz "
bz &
b11110 !
b11110 $
b11110 %
0#
#9300
b11111 "
b11111 &
b11111 !
b11111 $
b11111 %
1#
#9600
bz "
bz &
b100000 !
b100000 $
b100000 %
0#
#9900
b100001 "
b100001 &
b100001 !
b100001 $
b100001 %
1#
#10200
bz "
bz &
b100010 !
b100010 $
b100010 %
0#
#10500
b100011 "
b100011 &
b100011 !
b100011 $
b100011 %
1#
#10800
bz "
bz &
b100100 !
b100100 $
b100100 %
0#
#11100
b100101 "
b100101 &
b100101 !
b100101 $
b100101 %
1#
#11400
bz "
bz &
b100110 !
b100110 $
b100110 %
0#
#11700
b100111 "
b100111 &
b100111 !
b100111 $
b100111 %
1#
#12000
bz "
bz &
b101000 !
b101000 $
b101000 %
0#
#12300
b101001 "
b101001 &
b101001 !
b101001 $
b101001 %
1#
#12600
bz "
bz &
b101010 !
b101010 $
b101010 %
0#
#12900
b101011 "
b101011 &
b101011 !
b101011 $
b101011 %
1#
#13200
bz "
bz &
b101100 !
b101100 $
b101100 %
0#
#13500
b101101 "
b101101 &
b101101 !
b101101 $
b101101 %
1#
#13800
bz "
bz &
b101110 !
b101110 $
b101110 %
0#
#14100
b101111 "
b101111 &
b101111 !
b101111 $
b101111 %
1#
#14400
bz "
bz &
b110000 !
b110000 $
b110000 %
0#
#14700
b110001 "
b110001 &
b110001 !
b110001 $
b110001 %
1#
#15000
bz "
bz &
b110010 !
b110010 $
b110010 %
0#
#15300
b110011 "
b110011 &
b110011 !
b110011 $
b110011 %
1#
#15600
bz "
bz &
b110100 !
b110100 $
b110100 %
0#
#15900
b110101 "
b110101 &
b110101 !
b110101 $
b110101 %
1#
#16200
bz "
bz &
b110110 !
b110110 $
b110110 %
0#
#16500
b110111 "
b110111 &
b110111 !
b110111 $
b110111 %
1#
#16800
bz "
bz &
b111000 !
b111000 $
b111000 %
0#
#17100
b111001 "
b111001 &
b111001 !
b111001 $
b111001 %
1#
#17400
bz "
bz &
b111010 !
b111010 $
b111010 %
0#
#17700
b111011 "
b111011 &
b111011 !
b111011 $
b111011 %
1#
#18000
bz "
bz &
b111100 !
b111100 $
b111100 %
0#
#18300
b111101 "
b111101 &
b111101 !
b111101 $
b111101 %
1#
#18600
bz "
bz &
b111110 !
b111110 $
b111110 %
0#
#18900
b111111 "
b111111 &
b111111 !
b111111 $
b111111 %
1#
#19200
bz "
bz &
b1000000 !
b1000000 $
b1000000 %
0#
#19500
b1000001 "
b1000001 &
b1000001 !
b1000001 $
b1000001 %
1#
#19800
bz "
bz &
b1000010 !
b1000010 $
b1000010 %
0#
#20100
b1000011 "
b1000011 &
b1000011 !
b1000011 $
b1000011 %
1#
#20400
bz "
bz &
b1000100 !
b1000100 $
b1000100 %
0#
#20700
b1000101 "
b1000101 &
b1000101 !
b1000101 $
b1000101 %
1#
#21000
bz "
bz &
b1000110 !
b1000110 $
b1000110 %
0#
#21300
b1000111 "
b1000111 &
b1000111 !
b1000111 $
b1000111 %
1#
#21600
bz "
bz &
b1001000 !
b1001000 $
b1001000 %
0#
#21900
b1001001 "
b1001001 &
b1001001 !
b1001001 $
b1001001 %
1#
#22200
bz "
bz &
b1001010 !
b1001010 $
b1001010 %
0#
#22500
b1001011 "
b1001011 &
b1001011 !
b1001011 $
b1001011 %
1#
#22800
bz "
bz &
b1001100 !
b1001100 $
b1001100 %
0#
#23100
b1001101 "
b1001101 &
b1001101 !
b1001101 $
b1001101 %
1#
#23400
bz "
bz &
b1001110 !
b1001110 $
b1001110 %
0#
#23700
b1001111 "
b1001111 &
b1001111 !
b1001111 $
b1001111 %
1#
#24000
bz "
bz &
b1010000 !
b1010000 $
b1010000 %
0#
#24300
b1010001 "
b1010001 &
b1010001 !
b1010001 $
b1010001 %
1#
#24600
bz "
bz &
b1010010 !
b1010010 $
b1010010 %
0#
#24900
b1010011 "
b1010011 &
b1010011 !
b1010011 $
b1010011 %
1#
#25200
bz "
bz &
b1010100 !
b1010100 $
b1010100 %
0#
#25500
b1010101 "
b1010101 &
b1010101 !
b1010101 $
b1010101 %
1#
#25800
bz "
bz &
b1010110 !
b1010110 $
b1010110 %
0#
#26100
b1010111 "
b1010111 &
b1010111 !
b1010111 $
b1010111 %
1#
#26400
bz "
bz &
b1011000 !
b1011000 $
b1011000 %
0#
#26700
b1011001 "
b1011001 &
b1011001 !
b1011001 $
b1011001 %
1#
#27000
bz "
bz &
b1011010 !
b1011010 $
b1011010 %
0#
#27300
b1011011 "
b1011011 &
b1011011 !
b1011011 $
b1011011 %
1#
#27600
bz "
bz &
b1011100 !
b1011100 $
b1011100 %
0#
#27900
b1011101 "
b1011101 &
b1011101 !
b1011101 $
b1011101 %
1#
#28200
bz "
bz &
b1011110 !
b1011110 $
b1011110 %
0#
#28500
b1011111 "
b1011111 &
b1011111 !
b1011111 $
b1011111 %
1#
#28800
bz "
bz &
b1100000 !
b1100000 $
b1100000 %
0#
#29100
b1100001 "
b1100001 &
b1100001 !
b1100001 $
b1100001 %
1#
#29400
bz "
bz &
b1100010 !
b1100010 $
b1100010 %
0#
#29700
b1100011 "
b1100011 &
b1100011 !
b1100011 $
b1100011 %
1#
#30000
bz "
bz &
b1100100 !
b1100100 $
b1100100 %
0#
#30300
b1100101 "
b1100101 &
b1100101 !
b1100101 $
b1100101 %
1#
#30600
bz "
bz &
b1100110 !
b1100110 $
b1100110 %
0#
#30900
b1100111 "
b1100111 &
b1100111 !
b1100111 $
b1100111 %
1#
#31200
bz "
bz &
b1101000 !
b1101000 $
b1101000 %
0#
#31500
b1101001 "
b1101001 &
b1101001 !
b1101001 $
b1101001 %
1#
#31800
bz "
bz &
b1101010 !
b1101010 $
b1101010 %
0#
#32100
b1101011 "
b1101011 &
b1101011 !
b1101011 $
b1101011 %
1#
#32400
bz "
bz &
b1101100 !
b1101100 $
b1101100 %
0#
#32700
b1101101 "
b1101101 &
b1101101 !
b1101101 $
b1101101 %
1#
#33000
bz "
bz &
b1101110 !
b1101110 $
b1101110 %
0#
#33300
b1101111 "
b1101111 &
b1101111 !
b1101111 $
b1101111 %
1#
#33600
bz "
bz &
b1110000 !
b1110000 $
b1110000 %
0#
#33900
b1110001 "
b1110001 &
b1110001 !
b1110001 $
b1110001 %
1#
#34200
bz "
bz &
b1110010 !
b1110010 $
b1110010 %
0#
#34500
b1110011 "
b1110011 &
b1110011 !
b1110011 $
b1110011 %
1#
#34800
bz "
bz &
b1110100 !
b1110100 $
b1110100 %
0#
#35100
b1110101 "
b1110101 &
b1110101 !
b1110101 $
b1110101 %
1#
#35400
bz "
bz &
b1110110 !
b1110110 $
b1110110 %
0#
#35700
b1110111 "
b1110111 &
b1110111 !
b1110111 $
b1110111 %
1#
#36000
bz "
bz &
b1111000 !
b1111000 $
b1111000 %
0#
#36300
b1111001 "
b1111001 &
b1111001 !
b1111001 $
b1111001 %
1#
#36600
bz "
bz &
b1111010 !
b1111010 $
b1111010 %
0#
#36900
b1111011 "
b1111011 &
b1111011 !
b1111011 $
b1111011 %
1#
#37200
bz "
bz &
b1111100 !
b1111100 $
b1111100 %
0#
#37500
b1111101 "
b1111101 &
b1111101 !
b1111101 $
b1111101 %
1#
#37800
bz "
bz &
b1111110 !
b1111110 $
b1111110 %
0#
#38100
b1111111 "
b1111111 &
b1111111 !
b1111111 $
b1111111 %
1#
#38400
bz "
bz &
b10000000 !
b10000000 $
b10000000 %
0#
#38700
b10000001 "
b10000001 &
b10000001 !
b10000001 $
b10000001 %
1#
#39000
bz "
bz &
b10000010 !
b10000010 $
b10000010 %
0#
#39300
b10000011 "
b10000011 &
b10000011 !
b10000011 $
b10000011 %
1#
#39600
bz "
bz &
b10000100 !
b10000100 $
b10000100 %
0#
#39900
b10000101 "
b10000101 &
b10000101 !
b10000101 $
b10000101 %
1#
#40200
bz "
bz &
b10000110 !
b10000110 $
b10000110 %
0#
#40500
b10000111 "
b10000111 &
b10000111 !
b10000111 $
b10000111 %
1#
#40800
bz "
bz &
b10001000 !
b10001000 $
b10001000 %
0#
#41100
b10001001 "
b10001001 &
b10001001 !
b10001001 $
b10001001 %
1#
#41400
bz "
bz &
b10001010 !
b10001010 $
b10001010 %
0#
#41700
b10001011 "
b10001011 &
b10001011 !
b10001011 $
b10001011 %
1#
#42000
bz "
bz &
b10001100 !
b10001100 $
b10001100 %
0#
#42300
b10001101 "
b10001101 &
b10001101 !
b10001101 $
b10001101 %
1#
#42600
bz "
bz &
b10001110 !
b10001110 $
b10001110 %
0#
#42900
b10001111 "
b10001111 &
b10001111 !
b10001111 $
b10001111 %
1#
#43200
bz "
bz &
b10010000 !
b10010000 $
b10010000 %
0#
#43500
b10010001 "
b10010001 &
b10010001 !
b10010001 $
b10010001 %
1#
#43800
bz "
bz &
b10010010 !
b10010010 $
b10010010 %
0#
#44100
b10010011 "
b10010011 &
b10010011 !
b10010011 $
b10010011 %
1#
#44400
bz "
bz &
b10010100 !
b10010100 $
b10010100 %
0#
#44700
b10010101 "
b10010101 &
b10010101 !
b10010101 $
b10010101 %
1#
#45000
bz "
bz &
b10010110 !
b10010110 $
b10010110 %
0#
#45300
b10010111 "
b10010111 &
b10010111 !
b10010111 $
b10010111 %
1#
#45600
bz "
bz &
b10011000 !
b10011000 $
b10011000 %
0#
#45900
b10011001 "
b10011001 &
b10011001 !
b10011001 $
b10011001 %
1#
#46200
bz "
bz &
b10011010 !
b10011010 $
b10011010 %
0#
#46500
b10011011 "
b10011011 &
b10011011 !
b10011011 $
b10011011 %
1#
#46800
bz "
bz &
b10011100 !
b10011100 $
b10011100 %
0#
#47100
b10011101 "
b10011101 &
b10011101 !
b10011101 $
b10011101 %
1#
#47400
bz "
bz &
b10011110 !
b10011110 $
b10011110 %
0#
#47700
b10011111 "
b10011111 &
b10011111 !
b10011111 $
b10011111 %
1#
#48000
bz "
bz &
b10100000 !
b10100000 $
b10100000 %
0#
#48300
b10100001 "
b10100001 &
b10100001 !
b10100001 $
b10100001 %
1#
#48600
bz "
bz &
b10100010 !
b10100010 $
b10100010 %
0#
#48900
b10100011 "
b10100011 &
b10100011 !
b10100011 $
b10100011 %
1#
#49200
bz "
bz &
b10100100 !
b10100100 $
b10100100 %
0#
#49500
b10100101 "
b10100101 &
b10100101 !
b10100101 $
b10100101 %
1#
#49800
bz "
bz &
b10100110 !
b10100110 $
b10100110 %
0#
#50100
b10100111 "
b10100111 &
b10100111 !
b10100111 $
b10100111 %
1#
#50400
bz "
bz &
b10101000 !
b10101000 $
b10101000 %
0#
#50700
b10101001 "
b10101001 &
b10101001 !
b10101001 $
b10101001 %
1#
#51000
bz "
bz &
b10101010 !
b10101010 $
b10101010 %
0#
#51300
b10101011 "
b10101011 &
b10101011 !
b10101011 $
b10101011 %
1#
#51600
bz "
bz &
b10101100 !
b10101100 $
b10101100 %
0#
#51900
b10101101 "
b10101101 &
b10101101 !
b10101101 $
b10101101 %
1#
#52200
bz "
bz &
b10101110 !
b10101110 $
b10101110 %
0#
#52500
b10101111 "
b10101111 &
b10101111 !
b10101111 $
b10101111 %
1#
#52800
bz "
bz &
b10110000 !
b10110000 $
b10110000 %
0#
#53100
b10110001 "
b10110001 &
b10110001 !
b10110001 $
b10110001 %
1#
#53400
bz "
bz &
b10110010 !
b10110010 $
b10110010 %
0#
#53700
b10110011 "
b10110011 &
b10110011 !
b10110011 $
b10110011 %
1#
#54000
bz "
bz &
b10110100 !
b10110100 $
b10110100 %
0#
#54300
b10110101 "
b10110101 &
b10110101 !
b10110101 $
b10110101 %
1#
#54600
bz "
bz &
b10110110 !
b10110110 $
b10110110 %
0#
#54900
b10110111 "
b10110111 &
b10110111 !
b10110111 $
b10110111 %
1#
#55200
bz "
bz &
b10111000 !
b10111000 $
b10111000 %
0#
#55500
b10111001 "
b10111001 &
b10111001 !
b10111001 $
b10111001 %
1#
#55800
bz "
bz &
b10111010 !
b10111010 $
b10111010 %
0#
#56100
b10111011 "
b10111011 &
b10111011 !
b10111011 $
b10111011 %
1#
#56400
bz "
bz &
b10111100 !
b10111100 $
b10111100 %
0#
#56700
b10111101 "
b10111101 &
b10111101 !
b10111101 $
b10111101 %
1#
#57000
bz "
bz &
b10111110 !
b10111110 $
b10111110 %
0#
#57300
b10111111 "
b10111111 &
b10111111 !
b10111111 $
b10111111 %
1#
#57600
bz "
bz &
b11000000 !
b11000000 $
b11000000 %
0#
#57900
b11000001 "
b11000001 &
b11000001 !
b11000001 $
b11000001 %
1#
#58200
bz "
bz &
b11000010 !
b11000010 $
b11000010 %
0#
#58500
b11000011 "
b11000011 &
b11000011 !
b11000011 $
b11000011 %
1#
#58800
bz "
bz &
b11000100 !
b11000100 $
b11000100 %
0#
#59100
b11000101 "
b11000101 &
b11000101 !
b11000101 $
b11000101 %
1#
#59400
bz "
bz &
b11000110 !
b11000110 $
b11000110 %
0#
#59700
b11000111 "
b11000111 &
b11000111 !
b11000111 $
b11000111 %
1#
#60000
bz "
bz &
b11001000 !
b11001000 $
b11001000 %
0#
#60300
b11001001 "
b11001001 &
b11001001 !
b11001001 $
b11001001 %
1#
#60600
bz "
bz &
b11001010 !
b11001010 $
b11001010 %
0#
#60900
b11001011 "
b11001011 &
b11001011 !
b11001011 $
b11001011 %
1#
#61200
bz "
bz &
b11001100 !
b11001100 $
b11001100 %
0#
#61500
b11001101 "
b11001101 &
b11001101 !
b11001101 $
b11001101 %
1#
#61800
bz "
bz &
b11001110 !
b11001110 $
b11001110 %
0#
#62100
b11001111 "
b11001111 &
b11001111 !
b11001111 $
b11001111 %
1#
#62400
bz "
bz &
b11010000 !
b11010000 $
b11010000 %
0#
#62700
b11010001 "
b11010001 &
b11010001 !
b11010001 $
b11010001 %
1#
#63000
bz "
bz &
b11010010 !
b11010010 $
b11010010 %
0#
#63300
b11010011 "
b11010011 &
b11010011 !
b11010011 $
b11010011 %
1#
#63600
bz "
bz &
b11010100 !
b11010100 $
b11010100 %
0#
#63900
b11010101 "
b11010101 &
b11010101 !
b11010101 $
b11010101 %
1#
#64200
bz "
bz &
b11010110 !
b11010110 $
b11010110 %
0#
#64500
b11010111 "
b11010111 &
b11010111 !
b11010111 $
b11010111 %
1#
#64800
bz "
bz &
b11011000 !
b11011000 $
b11011000 %
0#
#65100
b11011001 "
b11011001 &
b11011001 !
b11011001 $
b11011001 %
1#
#65400
bz "
bz &
b11011010 !
b11011010 $
b11011010 %
0#
#65700
b11011011 "
b11011011 &
b11011011 !
b11011011 $
b11011011 %
1#
#66000
bz "
bz &
b11011100 !
b11011100 $
b11011100 %
0#
#66300
b11011101 "
b11011101 &
b11011101 !
b11011101 $
b11011101 %
1#
#66600
bz "
bz &
b11011110 !
b11011110 $
b11011110 %
0#
#66900
b11011111 "
b11011111 &
b11011111 !
b11011111 $
b11011111 %
1#
#67200
bz "
bz &
b11100000 !
b11100000 $
b11100000 %
0#
#67500
b11100001 "
b11100001 &
b11100001 !
b11100001 $
b11100001 %
1#
#67800
bz "
bz &
b11100010 !
b11100010 $
b11100010 %
0#
#68100
b11100011 "
b11100011 &
b11100011 !
b11100011 $
b11100011 %
1#
#68400
bz "
bz &
b11100100 !
b11100100 $
b11100100 %
0#
#68700
b11100101 "
b11100101 &
b11100101 !
b11100101 $
b11100101 %
1#
#69000
bz "
bz &
b11100110 !
b11100110 $
b11100110 %
0#
#69300
b11100111 "
b11100111 &
b11100111 !
b11100111 $
b11100111 %
1#
#69600
bz "
bz &
b11101000 !
b11101000 $
b11101000 %
0#
#69900
b11101001 "
b11101001 &
b11101001 !
b11101001 $
b11101001 %
1#
#70200
bz "
bz &
b11101010 !
b11101010 $
b11101010 %
0#
#70500
b11101011 "
b11101011 &
b11101011 !
b11101011 $
b11101011 %
1#
#70800
bz "
bz &
b11101100 !
b11101100 $
b11101100 %
0#
#71100
b11101101 "
b11101101 &
b11101101 !
b11101101 $
b11101101 %
1#
#71400
bz "
bz &
b11101110 !
b11101110 $
b11101110 %
0#
#71700
b11101111 "
b11101111 &
b11101111 !
b11101111 $
b11101111 %
1#
#72000
bz "
bz &
b11110000 !
b11110000 $
b11110000 %
0#
#72300
b11110001 "
b11110001 &
b11110001 !
b11110001 $
b11110001 %
1#
#72600
bz "
bz &
b11110010 !
b11110010 $
b11110010 %
0#
#72900
b11110011 "
b11110011 &
b11110011 !
b11110011 $
b11110011 %
1#
#73200
bz "
bz &
b11110100 !
b11110100 $
b11110100 %
0#
#73500
b11110101 "
b11110101 &
b11110101 !
b11110101 $
b11110101 %
1#
#73800
bz "
bz &
b11110110 !
b11110110 $
b11110110 %
0#
#74100
b11110111 "
b11110111 &
b11110111 !
b11110111 $
b11110111 %
1#
#74400
bz "
bz &
b11111000 !
b11111000 $
b11111000 %
0#
#74700
b11111001 "
b11111001 &
b11111001 !
b11111001 $
b11111001 %
1#
#75000
bz "
bz &
b11111010 !
b11111010 $
b11111010 %
0#
#75300
b11111011 "
b11111011 &
b11111011 !
b11111011 $
b11111011 %
1#
#75600
bz "
bz &
b11111100 !
b11111100 $
b11111100 %
0#
#75900
b11111101 "
b11111101 &
b11111101 !
b11111101 $
b11111101 %
1#
#76200
bz "
bz &
b11111110 !
b11111110 $
b11111110 %
0#
#76500
b11111111 "
b11111111 &
b11111111 !
b11111111 $
b11111111 %
1#
#76800
bz "
bz &
b100000000 !
b100000000 $
b100000000 %
0#
#77100
b100000001 "
b100000001 &
b100000001 !
b100000001 $
b100000001 %
1#
#77400
bz "
bz &
b100000010 !
b100000010 $
b100000010 %
0#
#77700
b100000011 "
b100000011 &
b100000011 !
b100000011 $
b100000011 %
1#
#78000
bz "
bz &
b100000100 !
b100000100 $
b100000100 %
0#
#78300
b100000101 "
b100000101 &
b100000101 !
b100000101 $
b100000101 %
1#
#78600
bz "
bz &
b100000110 !
b100000110 $
b100000110 %
0#
#78900
b100000111 "
b100000111 &
b100000111 !
b100000111 $
b100000111 %
1#
#79200
bz "
bz &
b100001000 !
b100001000 $
b100001000 %
0#
#79500
b100001001 "
b100001001 &
b100001001 !
b100001001 $
b100001001 %
1#
#79800
bz "
bz &
b100001010 !
b100001010 $
b100001010 %
0#
#80100
b100001011 "
b100001011 &
b100001011 !
b100001011 $
b100001011 %
1#
#80400
bz "
bz &
b100001100 !
b100001100 $
b100001100 %
0#
#80700
b100001101 "
b100001101 &
b100001101 !
b100001101 $
b100001101 %
1#
#81000
bz "
bz &
b100001110 !
b100001110 $
b100001110 %
0#
#81300
b100001111 "
b100001111 &
b100001111 !
b100001111 $
b100001111 %
1#
#81600
bz "
bz &
b100010000 !
b100010000 $
b100010000 %
0#
#81900
b100010001 "
b100010001 &
b100010001 !
b100010001 $
b100010001 %
1#
#82200
bz "
bz &
b100010010 !
b100010010 $
b100010010 %
0#
#82500
b100010011 "
b100010011 &
b100010011 !
b100010011 $
b100010011 %
1#
#82800
bz "
bz &
b100010100 !
b100010100 $
b100010100 %
0#
#83100
b100010101 "
b100010101 &
b100010101 !
b100010101 $
b100010101 %
1#
#83400
bz "
bz &
b100010110 !
b100010110 $
b100010110 %
0#
#83700
b100010111 "
b100010111 &
b100010111 !
b100010111 $
b100010111 %
1#
#84000
bz "
bz &
b100011000 !
b100011000 $
b100011000 %
0#
#84300
b100011001 "
b100011001 &
b100011001 !
b100011001 $
b100011001 %
1#
#84600
bz "
bz &
b100011010 !
b100011010 $
b100011010 %
0#
#84900
b100011011 "
b100011011 &
b100011011 !
b100011011 $
b100011011 %
1#
#85200
bz "
bz &
b100011100 !
b100011100 $
b100011100 %
0#
#85500
b100011101 "
b100011101 &
b100011101 !
b100011101 $
b100011101 %
1#
#85800
bz "
bz &
b100011110 !
b100011110 $
b100011110 %
0#
#86100
b100011111 "
b100011111 &
b100011111 !
b100011111 $
b100011111 %
1#
#86400
bz "
bz &
b100100000 !
b100100000 $
b100100000 %
0#
#86700
b100100001 "
b100100001 &
b100100001 !
b100100001 $
b100100001 %
1#
#87000
bz "
bz &
b100100010 !
b100100010 $
b100100010 %
0#
#87300
b100100011 "
b100100011 &
b100100011 !
b100100011 $
b100100011 %
1#
#87600
bz "
bz &
b100100100 !
b100100100 $
b100100100 %
0#
#87900
b100100101 "
b100100101 &
b100100101 !
b100100101 $
b100100101 %
1#
#88200
bz "
bz &
b100100110 !
b100100110 $
b100100110 %
0#
#88500
b100100111 "
b100100111 &
b100100111 !
b100100111 $
b100100111 %
1#
#88800
bz "
bz &
b100101000 !
b100101000 $
b100101000 %
0#
#89100
b100101001 "
b100101001 &
b100101001 !
b100101001 $
b100101001 %
1#
#89400
bz "
bz &
b100101010 !
b100101010 $
b100101010 %
0#
#89700
b100101011 "
b100101011 &
b100101011 !
b100101011 $
b100101011 %
1#
#90000
bz "
bz &
b100101100 !
b100101100 $
b100101100 %
0#
#90300
b100101101 "
b100101101 &
b100101101 !
b100101101 $
b100101101 %
1#
#90600
bz "
bz &
b100101110 !
b100101110 $
b100101110 %
0#
#90900
b100101111 "
b100101111 &
b100101111 !
b100101111 $
b100101111 %
1#
#91200
bz "
bz &
b100110000 !
b100110000 $
b100110000 %
0#
#91500
b100110001 "
b100110001 &
b100110001 !
b100110001 $
b100110001 %
1#
#91800
bz "
bz &
b100110010 !
b100110010 $
b100110010 %
0#
#92100
b100110011 "
b100110011 &
b100110011 !
b100110011 $
b100110011 %
1#
#92400
bz "
bz &
b100110100 !
b100110100 $
b100110100 %
0#
#92700
b100110101 "
b100110101 &
b100110101 !
b100110101 $
b100110101 %
1#
#93000
bz "
bz &
b100110110 !
b100110110 $
b100110110 %
0#
#93300
b100110111 "
b100110111 &
b100110111 !
b100110111 $
b100110111 %
1#
#93600
bz "
bz &
b100111000 !
b100111000 $
b100111000 %
0#
#93900
b100111001 "
b100111001 &
b100111001 !
b100111001 $
b100111001 %
1#
#94200
bz "
bz &
b100111010 !
b100111010 $
b100111010 %
0#
#94500
b100111011 "
b100111011 &
b100111011 !
b100111011 $
b100111011 %
1#
#94800
bz "
bz &
b100111100 !
b100111100 $
b100111100 %
0#
#95100
b100111101 "
b100111101 &
b100111101 !
b100111101 $
b100111101 %
1#
#95400
bz "
bz &
b100111110 !
b100111110 $
b100111110 %
0#
#95700
b100111111 "
b100111111 &
b100111111 !
b100111111 $
b100111111 %
1#
#96000
bz "
bz &
b101000000 !
b101000000 $
b101000000 %
0#
#96300
b101000001 "
b101000001 &
b101000001 !
b101000001 $
b101000001 %
1#
#96600
bz "
bz &
b101000010 !
b101000010 $
b101000010 %
0#
#96900
b101000011 "
b101000011 &
b101000011 !
b101000011 $
b101000011 %
1#
#97200
bz "
bz &
b101000100 !
b101000100 $
b101000100 %
0#
#97500
b101000101 "
b101000101 &
b101000101 !
b101000101 $
b101000101 %
1#
#97800
bz "
bz &
b101000110 !
b101000110 $
b101000110 %
0#
#98100
b101000111 "
b101000111 &
b101000111 !
b101000111 $
b101000111 %
1#
#98400
bz "
bz &
b101001000 !
b101001000 $
b101001000 %
0#
#98700
b101001001 "
b101001001 &
b101001001 !
b101001001 $
b101001001 %
1#
#99000
bz "
bz &
b101001010 !
b101001010 $
b101001010 %
0#
#99300
b101001011 "
b101001011 &
b101001011 !
b101001011 $
b101001011 %
1#
#99600
bz "
bz &
b101001100 !
b101001100 $
b101001100 %
0#
#99900
b101001101 "
b101001101 &
b101001101 !
b101001101 $
b101001101 %
1#
#100200
bz "
bz &
b101001110 !
b101001110 $
b101001110 %
0#
#100500
b101001111 "
b101001111 &
b101001111 !
b101001111 $
b101001111 %
1#
#100800
bz "
bz &
b101010000 !
b101010000 $
b101010000 %
0#
#101100
b101010001 "
b101010001 &
b101010001 !
b101010001 $
b101010001 %
1#
#101400
bz "
bz &
b101010010 !
b101010010 $
b101010010 %
0#
#101700
b101010011 "
b101010011 &
b101010011 !
b101010011 $
b101010011 %
1#
#102000
bz "
bz &
b101010100 !
b101010100 $
b101010100 %
0#
#102300
b101010101 "
b101010101 &
b101010101 !
b101010101 $
b101010101 %
1#
#102600
bz "
bz &
b101010110 !
b101010110 $
b101010110 %
0#
#102900
b101010111 "
b101010111 &
b101010111 !
b101010111 $
b101010111 %
1#
#103200
bz "
bz &
b101011000 !
b101011000 $
b101011000 %
0#
#103500
b101011001 "
b101011001 &
b101011001 !
b101011001 $
b101011001 %
1#
#103800
bz "
bz &
b101011010 !
b101011010 $
b101011010 %
0#
#104100
b101011011 "
b101011011 &
b101011011 !
b101011011 $
b101011011 %
1#
#104400
bz "
bz &
b101011100 !
b101011100 $
b101011100 %
0#
#104700
b101011101 "
b101011101 &
b101011101 !
b101011101 $
b101011101 %
1#
#105000
bz "
bz &
b101011110 !
b101011110 $
b101011110 %
0#
#105300
b101011111 "
b101011111 &
b101011111 !
b101011111 $
b101011111 %
1#
#105600
bz "
bz &
b101100000 !
b101100000 $
b101100000 %
0#
#105900
b101100001 "
b101100001 &
b101100001 !
b101100001 $
b101100001 %
1#
#106200
bz "
bz &
b101100010 !
b101100010 $
b101100010 %
0#
#106500
b101100011 "
b101100011 &
b101100011 !
b101100011 $
b101100011 %
1#
#106800
bz "
bz &
b101100100 !
b101100100 $
b101100100 %
0#
#107100
b101100101 "
b101100101 &
b101100101 !
b101100101 $
b101100101 %
1#
#107400
bz "
bz &
b101100110 !
b101100110 $
b101100110 %
0#
#107700
b101100111 "
b101100111 &
b101100111 !
b101100111 $
b101100111 %
1#
#108000
bz "
bz &
b101101000 !
b101101000 $
b101101000 %
0#
#108300
b101101001 "
b101101001 &
b101101001 !
b101101001 $
b101101001 %
1#
#108600
bz "
bz &
b101101010 !
b101101010 $
b101101010 %
0#
#108900
b101101011 "
b101101011 &
b101101011 !
b101101011 $
b101101011 %
1#
#109200
bz "
bz &
b101101100 !
b101101100 $
b101101100 %
0#
#109500
b101101101 "
b101101101 &
b101101101 !
b101101101 $
b101101101 %
1#
#109800
bz "
bz &
b101101110 !
b101101110 $
b101101110 %
0#
#110100
b101101111 "
b101101111 &
b101101111 !
b101101111 $
b101101111 %
1#
#110400
bz "
bz &
b101110000 !
b101110000 $
b101110000 %
0#
#110700
b101110001 "
b101110001 &
b101110001 !
b101110001 $
b101110001 %
1#
#111000
bz "
bz &
b101110010 !
b101110010 $
b101110010 %
0#
#111300
b101110011 "
b101110011 &
b101110011 !
b101110011 $
b101110011 %
1#
#111600
bz "
bz &
b101110100 !
b101110100 $
b101110100 %
0#
#111900
b101110101 "
b101110101 &
b101110101 !
b101110101 $
b101110101 %
1#
#112200
bz "
bz &
b101110110 !
b101110110 $
b101110110 %
0#
#112500
b101110111 "
b101110111 &
b101110111 !
b101110111 $
b101110111 %
1#
#112800
bz "
bz &
b101111000 !
b101111000 $
b101111000 %
0#
#113100
b101111001 "
b101111001 &
b101111001 !
b101111001 $
b101111001 %
1#
#113400
bz "
bz &
b101111010 !
b101111010 $
b101111010 %
0#
#113700
b101111011 "
b101111011 &
b101111011 !
b101111011 $
b101111011 %
1#
#114000
bz "
bz &
b101111100 !
b101111100 $
b101111100 %
0#
#114300
b101111101 "
b101111101 &
b101111101 !
b101111101 $
b101111101 %
1#
#114600
bz "
bz &
b101111110 !
b101111110 $
b101111110 %
0#
#114900
b101111111 "
b101111111 &
b101111111 !
b101111111 $
b101111111 %
1#
#115200
bz "
bz &
b110000000 !
b110000000 $
b110000000 %
0#
