alu-main/sra.vcd
$date
	Sun Jan 22 22:23:17 2023
$end
$version
	Icarus Verilog
$end
$timescale
	100ps
$end
$scope module alu_tb $end
$var wire 1 ! LT $end
$var wire 1 " NE $end
$var wire 1 # OVF $end
$var wire 32 $ Res [31:0] $end
$var reg 32 % A [31:0] $end
$var reg 5 & ALU_OP [4:0] $end
$var reg 32 ' B [31:0] $end
$var reg 1 ( ExpLT $end
$var reg 1 ) ExpNE $end
$var reg 1 * ExpOVF $end
$var reg 32 + ExpRes [31:0] $end
$var reg 5 , Shift_Amt [4:0] $end
$var reg 128 - actFileName [127:0] $end
$var reg 128 . diffFileName [127:0] $end
$var reg 128 / expFileName [127:0] $end
$var reg 128 0 testName [127:0] $end
$var integer 32 1 actFile [31:0] $end
$var integer 32 2 diffFile [31:0] $end
$var integer 32 3 errors [31:0] $end
$var integer 32 4 expFile [31:0] $end
$var integer 32 5 expScan [31:0] $end
$var integer 32 6 tests [31:0] $end
$scope module Tester $end
$var wire 32 7 add_result [31:0] $end
$var wire 5 8 ctrl_ALUopcode [4:0] $end
$var wire 5 9 ctrl_shiftamt [4:0] $end
$var wire 32 : data_operandA [31:0] $end
$var wire 32 ; data_operandB [31:0] $end
$var wire 1 ! isLessThan $end
$var wire 1 " isNotEqual $end
$var wire 1 # overflow $end
$var wire 32 < sub_result [31:0] $end
$var wire 32 = w7 [31:0] $end
$var wire 32 > w8 [31:0] $end
$var wire 32 ? sra_result [31:0] $end
$var wire 32 @ sll_result [31:0] $end
$var wire 32 A or_result [31:0] $end
$var wire 32 B data_result [31:0] $end
$var wire 32 C and_result [31:0] $end
$scope module and_op $end
$var wire 32 D data_operandA [31:0] $end
$var wire 32 E data_operandB [31:0] $end
$var wire 32 F data_result [31:0] $end
$upscope $end
$scope module choose_op $end
$var wire 32 G in0 [31:0] $end
$var wire 32 H in1 [31:0] $end
$var wire 32 I in2 [31:0] $end
$var wire 32 J in6 [31:0] $end
$var wire 32 K in7 [31:0] $end
$var wire 3 L select [2:0] $end
$var wire 32 M w2 [31:0] $end
$var wire 32 N w1 [31:0] $end
$var wire 32 O out [31:0] $end
$var wire 32 P in5 [31:0] $end
$var wire 32 Q in4 [31:0] $end
$var wire 32 R in3 [31:0] $end
$scope module mux1 $end
$var wire 32 S in0 [31:0] $end
$var wire 32 T in1 [31:0] $end
$var wire 32 U in2 [31:0] $end
$var wire 2 V select [1:0] $end
$var wire 32 W w2 [31:0] $end
$var wire 32 X w1 [31:0] $end
$var wire 32 Y out [31:0] $end
$var wire 32 Z in3 [31:0] $end
$scope module first_bottom $end
$var wire 32 [ in0 [31:0] $end
$var wire 1 \ select $end
$var wire 32 ] out [31:0] $end
$var wire 32 ^ in1 [31:0] $end
$upscope $end
$scope module first_top $end
$var wire 32 _ in0 [31:0] $end
$var wire 32 ` in1 [31:0] $end
$var wire 1 a select $end
$var wire 32 b out [31:0] $end
$upscope $end
$scope module second $end
$var wire 32 c in0 [31:0] $end
$var wire 32 d in1 [31:0] $end
$var wire 1 e select $end
$var wire 32 f out [31:0] $end
$upscope $end
$upscope $end
$scope module mux2 $end
$var wire 32 g in2 [31:0] $end
$var wire 32 h in3 [31:0] $end
$var wire 2 i select [1:0] $end
$var wire 32 j w2 [31:0] $end
$var wire 32 k w1 [31:0] $end
$var wire 32 l out [31:0] $end
$var wire 32 m in1 [31:0] $end
$var wire 32 n in0 [31:0] $end
$scope module first_bottom $end
$var wire 32 o in0 [31:0] $end
$var wire 32 p in1 [31:0] $end
$var wire 1 q select $end
$var wire 32 r out [31:0] $end
$upscope $end
$scope module first_top $end
$var wire 1 s select $end
$var wire 32 t out [31:0] $end
$var wire 32 u in1 [31:0] $end
$var wire 32 v in0 [31:0] $end
$upscope $end
$scope module second $end
$var wire 32 w in0 [31:0] $end
$var wire 32 x in1 [31:0] $end
$var wire 1 y select $end
$var wire 32 z out [31:0] $end
$upscope $end
$upscope $end
$scope module mux3 $end
$var wire 32 { in0 [31:0] $end
$var wire 32 | in1 [31:0] $end
$var wire 1 } select $end
$var wire 32 ~ out [31:0] $end
$upscope $end
$upscope $end
$scope module or_op $end
$var wire 32 !" data_operandA [31:0] $end
$var wire 32 "" data_operandB [31:0] $end
$var wire 32 #" data_result [31:0] $end
$upscope $end
$scope module sll_op $end
$var wire 5 $" ctrl_shiftamt [4:0] $end
$var wire 32 %" data_operandA [31:0] $end
$var wire 32 &" shift_8_result [31:0] $end
$var wire 32 '" shift_4_result [31:0] $end
$var wire 32 (" shift_2_result [31:0] $end
$var wire 32 )" shift_1_result [31:0] $end
$var wire 32 *" data_result [31:0] $end
$scope module shift_1 $end
$var wire 1 +" ctrl_bit $end
$var wire 32 ," data_operandA [31:0] $end
$var wire 32 -" data_result [31:0] $end
$upscope $end
$scope module shift_16 $end
$var wire 1 ." ctrl_bit $end
$var wire 32 /" data_result [31:0] $end
$var wire 32 0" data_operandA [31:0] $end
$upscope $end
$scope module shift_2 $end
$var wire 1 1" ctrl_bit $end
$var wire 32 2" data_operandA [31:0] $end
$var wire 32 3" data_result [31:0] $end
$upscope $end
$scope module shift_4 $end
$var wire 1 4" ctrl_bit $end
$var wire 32 5" data_operandA [31:0] $end
$var wire 32 6" data_result [31:0] $end
$upscope $end
$scope module shift_8 $end
$var wire 1 7" ctrl_bit $end
$var wire 32 8" data_operandA [31:0] $end
$var wire 32 9" data_result [31:0] $end
$upscope $end
$upscope $end
$scope module sra_op $end
$var wire 5 :" ctrl_shiftamt [4:0] $end
$var wire 32 ;" data_operandA [31:0] $end
$var wire 32 <" shift_8_result [31:0] $end
$var wire 32 =" shift_4_result [31:0] $end
$var wire 32 >" shift_2_result [31:0] $end
$var wire 32 ?" shift_1_result [31:0] $end
$var wire 32 @" data_result [31:0] $end
$scope module shift_1 $end
$var wire 1 A" ctrl_bit $end
$var wire 32 B" data_operandA [31:0] $end
$var wire 32 C" data_result [31:0] $end
$upscope $end
$scope module shift_16 $end
$var wire 1 D" ctrl_bit $end
$var wire 32 E" data_result [31:0] $end
$var wire 32 F" data_operandA [31:0] $end
$upscope $end
$scope module shift_2 $end
$var wire 1 G" ctrl_bit $end
$var wire 32 H" data_operandA [31:0] $end
$var wire 32 I" data_result [31:0] $end
$upscope $end
$scope module shift_4 $end
$var wire 1 J" ctrl_bit $end
$var wire 32 K" data_operandA [31:0] $end
$var wire 32 L" data_result [31:0] $end
$upscope $end
$scope module shift_8 $end
$var wire 1 M" ctrl_bit $end
$var wire 32 N" data_operandA [31:0] $end
$var wire 32 O" data_result [31:0] $end
$upscope $end
$upscope $end
$upscope $end
$upscope $end
$scope module alu_tb $end
$scope module Tester $end
$scope module and_op $end
$upscope $end
$scope module choose_op $end
$scope module mux1 $end
$scope module first_bottom $end
$upscope $end
$scope module first_top $end
$upscope $end
$scope module second $end
$upscope $end
$upscope $end
$scope module mux2 $end
$scope module first_bottom $end
$upscope $end
$scope module first_top $end
$upscope $end
$scope module second $end
$upscope $end
$upscope $end
$scope module mux3 $end
$upscope $end
$upscope $end
$scope module or_op $end
$upscope $end
$scope module sll_op $end
$scope module shift_1 $end
$upscope $end
$scope module shift_16 $end
$upscope $end
$scope module shift_2 $end
$upscope $end
$scope module shift_4 $end
$upscope $end
$scope module shift_8 $end
$upscope $end
$upscope $end
$scope module sra_op $end
$scope module shift_1 $end
$upscope $end
$scope module shift_16 $end
$upscope $end
$scope module shift_2 $end
$upscope $end
$scope module shift_4 $end
$upscope $end
$scope module shift_8 $end
$upscope $end
$upscope $end
$upscope $end
$upscope $end
$enddefinitions $end
#0
$dumpvars
b0 O"
b0 N"
0M"
b0 L"
b0 K"
0J"
b0 I"
b0 H"
0G"
b0 F"
b0 E"
0D"
b0 C"
b0 B"
0A"
b0 @"
b0 ?"
b0 >"
b0 ="
b0 <"
b0 ;"
b0 :"
b0 9"
b0 8"
07"
b0 6"
b0 5"
04"
b0 3"
b0 2"
01"
b0 0"
b0 /"
0."
b0 -"
b0 ,"
0+"
b0 *"
b0 )"
b0 ("
b0 '"
b0 &"
b0 %"
b0 $"
b0 #"
b0 ""
b0 !"
b0 ~
1}
b0 |
bz {
b0 z
0y
bz x
b0 w
b0 v
b0 u
b0 t
1s
bz r
1q
bz p
bz o
b0 n
b0 m
b0 l
b0 k
bz j
b1 i
bz h
bz g
bz f
0e
b0 d
bz c
bz b
1a
bz `
bz _
b0 ^
b0 ]
1\
b0 [
b0 Z
bz Y
bz X
b0 W
b1 V
b0 U
bz T
bz S
b0 R
b0 Q
b0 P
b0 O
bz N
b0 M
b101 L
bz K
bz J
b0 I
bz H
bz G
b0 F
b0 E
b0 D
b0 C
b0 B
b0 A
b0 @
b0 ?
bz >
bz =
bz <
b0 ;
b0 :
b0 9
b101 8
bz 7
b0 6
b1000 5
b10000000000000000000000000000011 4
b0 3
b10000000000000000000000000000101 2
b10000000000000000000000000000100 1
b11100110111001001100001 0
b111001101110010011000010101111101100101011110000111000000101110011000110111001101110110 /
b11100110111001001100001010111110110010001101001011001100110011000101110011000110111001101110110 .
b111001101110010011000010101111101100001011000110111010001110101011000010110110000101110011000110111001101110110 -
b0 ,
b0 +
0*
0)
0(
b0 '
b101 &
b0 %
b0 $
z#
z"
z!
$end
#100
b10000000000000000000000000000000 $
b10000000000000000000000000000000 B
b10000000000000000000000000000000 O
b10000000000000000000000000000000 ~
b10000000000000000000000000000000 M
b10000000000000000000000000000000 l
b10000000000000000000000000000000 z
b10000000000000000000000000000000 |
b10000000000000000000000000000000 k
b10000000000000000000000000000000 t
b10000000000000000000000000000000 w
b10000000000000000000000000000000 @
b10000000000000000000000000000000 Q
b10000000000000000000000000000000 n
b10000000000000000000000000000000 v
b10000000000000000000000000000000 *"
b10000000000000000000000000000000 /"
b10000000000000000000000000000000 ?
b10000000000000000000000000000000 P
b10000000000000000000000000000000 m
b10000000000000000000000000000000 u
b10000000000000000000000000000000 @"
b10000000000000000000000000000000 E"
b10000000000000000000000000000000 &"
b10000000000000000000000000000000 0"
b10000000000000000000000000000000 9"
b10000000000000000000000000000000 <"
b10000000000000000000000000000000 F"
b10000000000000000000000000000000 O"
b10000000000000000000000000000000 '"
b10000000000000000000000000000000 6"
b10000000000000000000000000000000 8"
b10000000000000000000000000000000 ="
b10000000000000000000000000000000 L"
b10000000000000000000000000000000 N"
b10000000000000000000000000000000 ("
b10000000000000000000000000000000 3"
b10000000000000000000000000000000 5"
b10000000000000000000000000000000 >"
b10000000000000000000000000000000 I"
b10000000000000000000000000000000 K"
b10000000000000000000000000000000 W
b10000000000000000000000000000000 ]
b10000000000000000000000000000000 d
b10000000000000000000000000000000 A
b10000000000000000000000000000000 R
b10000000000000000000000000000000 Z
b10000000000000000000000000000000 ^
b10000000000000000000000000000000 #"
b10000000000000000000000000000000 )"
b10000000000000000000000000000000 -"
b10000000000000000000000000000000 2"
b10000000000000000000000000000000 ?"
b10000000000000000000000000000000 C"
b10000000000000000000000000000000 H"
b10000000000000000000000000000000 +
b10000000000000000000000000000000 %
b10000000000000000000000000000000 :
b10000000000000000000000000000000 D
b10000000000000000000000000000000 !"
b10000000000000000000000000000000 %"
b10000000000000000000000000000000 ,"
b10000000000000000000000000000000 ;"
b10000000000000000000000000000000 B"
b1 6
#200
b11111111111111111111111111111111 $
b11111111111111111111111111111111 B
b11111111111111111111111111111111 O
b11111111111111111111111111111111 ~
b11111111111111111111111111111111 M
b11111111111111111111111111111111 l
b11111111111111111111111111111111 z
b11111111111111111111111111111111 |
b11111111111111111111111111111111 k
b11111111111111111111111111111111 t
b11111111111111111111111111111111 w
b0 )"
b0 -"
b0 2"
b0 ("
b0 3"
b0 5"
b0 '"
b0 6"
b0 8"
b0 &"
b0 0"
b0 9"
b0 @
b0 Q
b0 n
b0 v
b0 *"
b0 /"
b11000000000000000000000000000000 ?"
b11000000000000000000000000000000 C"
b11000000000000000000000000000000 H"
b11110000000000000000000000000000 >"
b11110000000000000000000000000000 I"
b11110000000000000000000000000000 K"
b11111111000000000000000000000000 ="
b11111111000000000000000000000000 L"
b11111111000000000000000000000000 N"
b11111111111111110000000000000000 <"
b11111111111111110000000000000000 F"
b11111111111111110000000000000000 O"
b11111111111111111111111111111111 ?
b11111111111111111111111111111111 P
b11111111111111111111111111111111 m
b11111111111111111111111111111111 u
b11111111111111111111111111111111 @"
b11111111111111111111111111111111 E"
1+"
11"
14"
17"
1."
1A"
1G"
1J"
1M"
1D"
b11111111111111111111111111111111 +
b11111 ,
b11111 9
b11111 $"
b11111 :"
b10 6
#300
b0 $
b0 B
b0 O
b0 ~
b0 M
b0 l
b0 z
b0 |
b0 k
b0 t
b0 w
b0 ?
b0 P
b0 m
b0 u
b0 @"
b0 E"
b0 <"
b0 F"
b0 O"
b0 ="
b0 L"
b0 N"
b0 >"
b0 I"
b0 K"
b0 W
b0 ]
b0 d
b0 A
b0 R
b0 Z
b0 ^
b0 #"
b0 ?"
b0 C"
b0 H"
b0 +
b0 %
b0 :
b0 D
b0 !"
b0 %"
b0 ,"
b0 ;"
b0 B"
b11 6
#400
b11111111111111111111111111111111 $
b11111111111111111111111111111111 B
b11111111111111111111111111111111 O
b11111111111111111111111111111111 ~
b11111111111111111111111111111111 M
b11111111111111111111111111111111 l
b11111111111111111111111111111111 z
b11111111111111111111111111111111 |
b11111111111111111111111111111111 k
b11111111111111111111111111111111 t
b11111111111111111111111111111111 w
b10000000000000000000000000000000 @
b10000000000000000000000000000000 Q
b10000000000000000000000000000000 n
b10000000000000000000000000000000 v
b10000000000000000000000000000000 *"
b10000000000000000000000000000000 /"
b11111111111111111111111111111111 ?
b11111111111111111111111111111111 P
b11111111111111111111111111111111 m
b11111111111111111111111111111111 u
b11111111111111111111111111111111 @"
b11111111111111111111111111111111 E"
b11111111111111111000000000000000 &"
b11111111111111111000000000000000 0"
b11111111111111111000000000000000 9"
b11111111111111111111111111111111 <"
b11111111111111111111111111111111 F"
b11111111111111111111111111111111 O"
b11111111111111111111111110000000 '"
b11111111111111111111111110000000 6"
b11111111111111111111111110000000 8"
b11111111111111111111111111111111 ="
b11111111111111111111111111111111 L"
b11111111111111111111111111111111 N"
b11111111111111111111111111111000 ("
b11111111111111111111111111111000 3"
b11111111111111111111111111111000 5"
b11111111111111111111111111111111 >"
b11111111111111111111111111111111 I"
b11111111111111111111111111111111 K"
b11111111111111111111111111111111 W
b11111111111111111111111111111111 ]
b11111111111111111111111111111111 d
b11111111111111111111111111111111 A
b11111111111111111111111111111111 R
b11111111111111111111111111111111 Z
b11111111111111111111111111111111 ^
b11111111111111111111111111111111 #"
b11111111111111111111111111111110 )"
b11111111111111111111111111111110 -"
b11111111111111111111111111111110 2"
b11111111111111111111111111111111 ?"
b11111111111111111111111111111111 C"
b11111111111111111111111111111111 H"
b11111111111111111111111111111111 +
b11111111111111111111111111111111 %
b11111111111111111111111111111111 :
b11111111111111111111111111111111 D
b11111111111111111111111111111111 !"
b11111111111111111111111111111111 %"
b11111111111111111111111111111111 ,"
b11111111111111111111111111111111 ;"
b11111111111111111111111111111111 B"
b100 6
#500
b1 $
b1 B
b1 O
b1 ~
b1 M
b1 l
b1 z
b1 |
b1 k
b1 t
b1 w
b11000000000000000000000000000000 @
b11000000000000000000000000000000 Q
b11000000000000000000000000000000 n
b11000000000000000000000000000000 v
b11000000000000000000000000000000 *"
b11000000000000000000000000000000 /"
b1 ?
b1 P
b1 m
b1 u
b1 @"
b1 E"
b11111111111111111100000000000000 &"
b11111111111111111100000000000000 0"
b11111111111111111100000000000000 9"
b11111111111111111 <"
b11111111111111111 F"
b11111111111111111 O"
b11111111111111111111111111000000 '"
b11111111111111111111111111000000 6"
b11111111111111111111111111000000 8"
b1111111111111111111111111 ="
b1111111111111111111111111 L"
b1111111111111111111111111 N"
b11111111111111111111111111111100 ("
b11111111111111111111111111111100 3"
b11111111111111111111111111111100 5"
b11111111111111111111111111111 >"
b11111111111111111111111111111 I"
b11111111111111111111111111111 K"
b1111111111111111111111111111111 W
b1111111111111111111111111111111 ]
b1111111111111111111111111111111 d
b1111111111111111111111111111111 )"
b1111111111111111111111111111111 -"
b1111111111111111111111111111111 2"
b1111111111111111111111111111111 A
b1111111111111111111111111111111 R
b1111111111111111111111111111111 Z
b1111111111111111111111111111111 ^
b1111111111111111111111111111111 #"
b1111111111111111111111111111111 ?"
b1111111111111111111111111111111 C"
b1111111111111111111111111111111 H"
0+"
0A"
b1 +
b11110 ,
b11110 9
b11110 $"
b11110 :"
b1111111111111111111111111111111 %
b1111111111111111111111111111111 :
b1111111111111111111111111111111 D
b1111111111111111111111111111111 !"
b1111111111111111111111111111111 %"
b1111111111111111111111111111111 ,"
b1111111111111111111111111111111 ;"
b1111111111111111111111111111111 B"
b101 6
#600
b0 $
b0 B
b0 O
b0 ~
b0 M
b0 l
b0 z
b0 |
b0 k
b0 t
b0 w
b10000000000000000000000000000000 @
b10000000000000000000000000000000 Q
b10000000000000000000000000000000 n
b10000000000000000000000000000000 v
b10000000000000000000000000000000 *"
b10000000000000000000000000000000 /"
b0 ?
b0 P
b0 m
b0 u
b0 @"
b0 E"
b11111111111111111000000000000000 &"
b11111111111111111000000000000000 0"
b11111111111111111000000000000000 9"
b1111111111111111 <"
b1111111111111111 F"
b1111111111111111 O"
b11111111111111111111111110000000 '"
b11111111111111111111111110000000 6"
b11111111111111111111111110000000 8"
b111111111111111111111111 ="
b111111111111111111111111 L"
b111111111111111111111111 N"
b11111111111111111111111111111000 ("
b11111111111111111111111111111000 3"
b11111111111111111111111111111000 5"
b1111111111111111111111111111 >"
b1111111111111111111111111111 I"
b1111111111111111111111111111 K"
b11111111111111111111111111111110 )"
b11111111111111111111111111111110 -"
b11111111111111111111111111111110 2"
b111111111111111111111111111111 ?"
b111111111111111111111111111111 C"
b111111111111111111111111111111 H"
1+"
1A"
b0 +
b11111 ,
b11111 9
b11111 $"
b11111 :"
b110 6
#700
b11111111111111111101010101010100 $
b11111111111111111101010101010100 B
b11111111111111111101010101010100 O
b11111111111111111101010101010100 ~
b11111111111111111101010101010100 M
b11111111111111111101010101010100 l
b11111111111111111101010101010100 z
b11111111111111111101010101010100 |
b11111111111111111101010101010100 k
b11111111111111111101010101010100 t
b11111111111111111101010101010100 w
b0 @
b0 Q
b0 n
b0 v
b0 *"
b0 /"
b11111111111111111101010101010100 ?
b11111111111111111101010101010100 P
b11111111111111111101010101010100 m
b11111111111111111101010101010100 u
b11111111111111111101010101010100 @"
b11111111111111111101010101010100 E"
b10101010101010000000000000000000 W
b10101010101010000000000000000000 ]
b10101010101010000000000000000000 d
b1010101010100000000000000000000 ("
b1010101010100000000000000000000 3"
b1010101010100000000000000000000 5"
b1010101010100000000000000000000 '"
b1010101010100000000000000000000 6"
b1010101010100000000000000000000 8"
b1010101010100000000000000000000 &"
b1010101010100000000000000000000 0"
b1010101010100000000000000000000 9"
b11010101010101000000000000000000 >"
b11010101010101000000000000000000 I"
b11010101010101000000000000000000 K"
b11010101010101000000000000000000 ="
b11010101010101000000000000000000 L"
b11010101010101000000000000000000 N"
b11010101010101000000000000000000 <"
b11010101010101000000000000000000 F"
b11010101010101000000000000000000 O"
b10101010101010000000000000000000 A
b10101010101010000000000000000000 R
b10101010101010000000000000000000 Z
b10101010101010000000000000000000 ^
b10101010101010000000000000000000 #"
b1010101010100000000000000000000 )"
b1010101010100000000000000000000 -"
b1010101010100000000000000000000 2"
b11010101010101000000000000000000 ?"
b11010101010101000000000000000000 C"
b11010101010101000000000000000000 H"
01"
04"
07"
0G"
0J"
0M"
b11111111111111111101010101010100 +
b10001 ,
b10001 9
b10001 $"
b10001 :"
b10101010101010000000000000000000 %
b10101010101010000000000000000000 :
b10101010101010000000000000000000 D
b10101010101010000000000000000000 !"
b10101010101010000000000000000000 %"
b10101010101010000000000000000000 ,"
b10101010101010000000000000000000 ;"
b10101010101010000000000000000000 B"
b111 6
#800
b11111111111111111111111111111111 5
b1000 6
